{
  "name": "Shacket",
  "description": "A modern theme using high contrast colours and supports video.",
  "author": "lifeboat.app",
  "docs_url": "https://lifeboat.app/user-manual/themes/shacket",
  "version": "1.2.3",
  "update_url": "https://gitlab.com/lifeboat_themes/shacket/-/archive/main/shacket-main.zip",
  "version_ping_url": "https://gitlab.com/lifeboat_themes/shacket/-/raw/main/VERSION",
  "custom_fields": {
    "BannerImage": {
      "label": "Banner Image (Image shown in the home page banner)",
      "type": "image"
    },
    "BannerTitle": {
      "label": "Banner Title (Text shown in the home page banner)",
      "type": "text"
    },
    "BannerSubheading": {
      "label": "Banner Sub-Heading (Text shown in the home page banner)",
      "type": "text"
    },
    "PopularCategoriesTitle": {
      "label": "Popular Categories Section Title",
      "type": "text",
      "default": "Popular Categories"
    },
    "FeaturedCollection": {
      "label": "Featured Collection in home page",
      "type": "list",
      "data_source": {
        "model": "Collection"
      }
    },
    "FeaturedCollectionImage": {
      "label": "Featured Collection Image (shown in home page)",
      "type": "image",
      "attach_to": "Collection"
    },
    "PopularItemsTitle": {
      "label": "Popular Items Section Title",
      "type": "text",
      "default": "Popular Items"
    },
    "ParallaxCollection": {
      "label": "Parallax Collection in home page",
      "type": "list",
      "data_source": {
        "model": "Collection"
      }
    },
    "ParallaxCollectionImage": {
      "label": "Parallax Collection Image (shown in home page)",
      "type": "image",
      "attach_to": "Collection"
    },
    "VideoSectionImage": {
      "label": "Video section image/thumbnail (shown in home page)",
      "type": "image"
    },
    "VideoSectionLink": {
      "label": "Video section video youtube link (shown in home page)",
      "type": "text"
    },
    "Category": {
      "label": "Category",
      "type": "list",
      "data_source": {
        "model": "Collection"
      },
      "attach_to": "Product"
    },
    "FooterMenu1": {
      "label": "Footer: First Menu",
      "type": "list",
      "data_source": {
        "model": "menu"
      }
    },
    "FooterMenu2": {
      "label": "Footer: Second Menu",
      "type": "list",
      "data_source": {
        "model": "menu"
      }
    },
    "MapLocation": {
      "label": "Map location, shown on the website in the Contact page. Type the store name as it is on Google Maps",
      "type": "text"
    }
  }
}
